<svg version="1.1" xmlns="http://www.w3.org/2000/svg" x="0px" y="0px" width="143.4px"
	 height="24px" viewBox="0 0 143.4 24">
<g fill="#222222">
	<polygon points="9.97,23.31 1.32,23.31 4.73,7.3 0,7.3 1.54,0.57 19.57,0.6 18.06,7.3 13.31,7.3 		"/>
	<polygon points="32.96,23.34 16.87,23.31 21.77,0.59 37.66,0.59 36.37,6.95 28.66,6.95 27.99,9.15 35.2,9.11
		34.27,14.73 26.59,14.73 25.88,16.94 34.3,16.94 		"/>
	<polygon points="58.71,23.35 48.68,23.35 47.41,16.33 43.06,23.31 32.98,23.34 43.44,11.41 38.73,0.64 48.57,0.64
		49.54,6.51 53.03,0.64 62.81,0.64 53.45,11.33 		"/>
	<path d="M109.87,2.79c-4.33-4.59-15.39-2.97-19.39,0.95c-5.51,5.4-6.54,13.96-2.09,17.77
		c3.08,2.64,12.5,4.37,18.68-1.15C112.82,15.23,114.2,7.38,109.87,2.79z M103.45,11.62c-0.25,1.88-3.17,5.75-6.18,5.2
		c-2.06-0.38-2.86-2.1-2.86-4.28c0-2.18,2.61-5.8,5.38-5.62C103.57,7.18,103.78,9.12,103.45,11.62z"/>
	<polygon points="82.91,23.35 73.53,23.35 70.17,14.08 68.15,23.37 59.94,23.39 64.79,0.61 73.2,0.61 71.18,9.5
		78.86,0.61 87.97,0.61 77.84,11.83 		"/>
	<polygon points="141.31,23.32 133.38,23.32 133.93,13.76 128.84,23.32 123.28,23.32 122.24,13.34 119.27,23.31
		111,23.31 118.71,0.64 128.31,0.64 128.59,11.68 133.81,0.64 143.4,0.64 		"/>
</g>
</svg>
